{
    "name": "hexshield.entry.spectralarrow",
    "category": "hexcasting:patterns/spells",
    "icon": "minecraft:spectral_arrow",
    "sortnum": 30,
    "advancement": "hexcasting:root",
    "pages": [
        {
            "type": "patchouli:text",
            "text": "hexshield.page.spectralarrow.0"
        },
        {
            "type": "hexcasting:pattern",
            "op_id": "hexshield:spectralarrow",
            "anchor": "hexshield:spectralarrow",
            "input": "vec: pos, vec: motion, bool: critical",
            "output": "",
            "text": "hexshield.page.spectralarrow.desc"
        },
        {
            "type": "patchouli:text",
            "text": "hexshield.page.spectralarrow.1"
        }
    ]
}