{
    "name": "hexshield.entry.extended_lists",
    "category": "hexcasting:patterns",
    "icon": "minecraft:dark_oak_sign",
    "sortnum": 30,
    "advancement": "hexcasting:root",
    "pages": [
        {
            "type": "patchouli:text",
            "text": "hexshield.page.multiple_modify_in_place.0"
        },
        {
            "type": "hexcasting:pattern",
            "op_id": "hexshield:multiple_modify_in_place",
            "anchor": "hexshield:multiple_modify_in_place",
            "input": "list, num, list|any",
            "output": "list",
            "text": "hexshield.page.multiple_modify_in_place.1"
        },
        {
            "type": "patchouli:text",
            "text": "hexshield.page.multiple_modify_in_place.2"
        }
    ]
}