{
    "name": "hexshield.entry.contract.resistance",
    "category": "hexshield:sacrificial_contracts",
    "icon": "minecraft:shield",
    "sortnum": 2,
    "advancement": "hexcasting:root",
    "pages": [
        {
            "type": "hexcasting:pattern",
            "op_id": "hexshield:resistance_contract",
            "anchor": "hexshield:resistance_contract",
            "input": "2000 AD",
            "output": "",
            "text": "hexshield.page.contract.desc.unsign"
        },
        {
            "type": "patchouli:text",
            "text": "hexshield.page.contract.resistance.0"
        }
    ]
}