{
  "name": "hexshield.entry.philosopher_battery",
  "category": "hexcasting:items",
  "icon": "hexshield:philosopher_battery{media:200000,max_media:200000}",
  "sortnum": 200,
  "advancement": "hexcasting:root",
  "read_by_default": true,
  "pages": [
    {
      "type": "patchouli:text",
      "text": "hexshield.page.philosopher_battery.1"
    },
    {
      "type": "patchouli:spotlight",
      "text": "hexshield.page.philosopher_battery.desc",
      "item": "hexshield:philosopher_battery{media:200000,max_media:200000}",
      "link_recipe": true
    }
  ]
}
